…
# Purpose
write purpose here for each file

# Experimental Details

Link to the protocol used (permalink preferred) for the experiment and include any notes relevant to your analysis.  This might include specifics not in the general protocol such as cell lines, treatment doses etc.

# Raw Data




```
## # A tibble: 88 x 3
##    `Image#` MouseID `Total Area`
##       <dbl>   <dbl>        <dbl>
##  1        1    7981      3117987
##  2        2    7981      3145728
##  3        3    7981      3120420
##  4        4    7981      3145728
##  5        5    7981      3005199
##  6        6    7981      3145728
##  7        7    7981      3145728
##  8        8    7981      2264574
##  9        1    7983      2809380
## 10        2    7983      3145728
## # … with 78 more rows
```
…
```
## # A tibble: 13,809 x 11
##    MouseID `Image number` `Adipocyte numb…  Area `Mean Area`   Min   Max
##      <dbl>          <dbl>            <dbl> <dbl>       <dbl> <dbl> <dbl>
##  1    7981              1                1   185        195.   185   205
##  2    7981              1                2   100        193.   182   200
##  3    7981              1                3   119        161.   153   176
##  4    7981              1                4   171        193.   171   202
##  5    7981              1                5   101        161.   150   174
##  6    7981              1                6   455        192.   169   205
##  7    7981              1                7    88        203.   196   211
##  8    7981              1                8   181        192.   178   201
##  9    7981              1                9   111        205.   197   212
## 10    7981              1               10   109        165.   156   177
## # … with 13,799 more rows, and 4 more variables: Genotype <fct>,
## #   TotalAdipocyteNumber <dbl>, ...10 <lgl>, TotalImageArea <lgl>
```

```
## # A tibble: 13,809 x 12
##    MouseID `Image number` `Adipocyte numb…  Area `Mean Area`   Min   Max
##      <dbl>          <dbl>            <dbl> <dbl>       <dbl> <dbl> <dbl>
##  1    7981              1                1   185        195.   185   205
##  2    7981              1                2   100        193.   182   200
##  3    7981              1                3   119        161.   153   176
##  4    7981              1                4   171        193.   171   202
##  5    7981              1                5   101        161.   150   174
##  6    7981              1                6   455        192.   169   205
##  7    7981              1                7    88        203.   196   211
##  8    7981              1                8   181        192.   178   201
##  9    7981              1                9   111        205.   197   212
## 10    7981              1               10   109        165.   156   177
## # … with 13,799 more rows, and 5 more variables: Genotype <fct>,
## #   TotalAdipocyteNumber <dbl>, ...10 <lgl>, TotalImageArea <lgl>, `Total
## #   Area` <dbl>
```
…
```
## # A tibble: 88 x 6
## # Groups:   Image number, MouseID [88]
##    `Image number` MouseID Genotype adipocyttesum totalarea adipocytesperarea
##             <dbl>   <dbl> <fct>            <int>     <dbl>             <dbl>
##  1              1    7981 KO                 661   3117987       0.000212   
##  2              1    7983 KO                  69   2809380       0.0000246  
##  3              1    7984 KO                   1   3034170       0.000000330
##  4              1    8161 KO                 293   2887962       0.000101   
##  5              1    8162 WT                  34   3085188       0.0000110  
##  6              1    8444 WT                  62   2882385       0.0000215  
##  7              1    8445 WT                 162   3012591       0.0000538  
##  8              1    8446 WT                 101   3053796       0.0000331  
##  9              1    8465 KO                 422   2903272       0.000145   
## 10              1    8466 KO                 176   3070488       0.0000573  
## # … with 78 more rows
```
…
```
## # A tibble: 88 x 6
## # Groups:   Image number, MouseID [88]
##    `Image number` MouseID Genotype adipocytearea totalarea normalizedadipocytes…
##             <dbl>   <dbl> <fct>            <dbl>     <dbl>                 <dbl>
##  1              1    7981 KO              144166   3117987               4.62   
##  2              1    7983 KO               24203   2809380               0.862  
##  3              1    7984 KO                 259   3034170               0.00854
##  4              1    8161 KO              115965   2887962               4.02   
##  5              1    8162 WT               10390   3085188               0.337  
##  6              1    8444 WT               37627   2882385               1.31   
##  7              1    8445 WT               17122   3012591               0.568  
##  8              1    8446 WT               30654   3053796               1.00   
##  9              1    8465 KO              139326   2903272               4.80   
## 10              1    8466 KO               59800   3070488               1.95   
## # … with 78 more rows
```
…
```
## # A tibble: 22 x 5
## # Groups:   Genotype [2]
##    Genotype range       count totaladipocytes percentofadipocytes
##    <fct>    <fct>       <int>           <int>               <dbl>
##  1 WT       [0,100)      1019            3285               31.0 
##  2 WT       [100,200)     741            3285               22.6 
##  3 WT       [200,300)     411            3285               12.5 
##  4 WT       [300,400)     267            3285                8.13
##  5 WT       [400,500)     208            3285                6.33
##  6 WT       [500,600)     142            3285                4.32
##  7 WT       [600,700)     219            3285                6.67
##  8 WT       [700,800)      94            3285                2.86
##  9 WT       [800,900)      54            3285                1.64
## 10 WT       [900,1e+03)    53            3285                1.61
## # … with 12 more rows
```
…
```
## # A tibble: 22 x 4
## # Groups:   Genotype [2]
##    Genotype range       averagepercentofadipocytes se.averagepercentofadipocytes
##    <fct>    <fct>                            <dbl>                         <dbl>
##  1 WT       [0,100)                          29.1                          6.46 
##  2 WT       [100,200)                        22.2                          2.74 
##  3 WT       [200,300)                        13.8                          2.37 
##  4 WT       [300,400)                         8.87                         1.81 
##  5 WT       [400,500)                         7.27                         1.53 
##  6 WT       [500,600)                         4.56                         0.877
##  7 WT       [600,700)                         6.49                         1.55 
##  8 WT       [700,800)                         2.96                         0.612
##  9 WT       [800,900)                         1.37                         0.521
## 10 WT       [900,1e+03)                       1.37                         0.513
## # … with 12 more rows
```
…
