…
| estimate| estimate1| estimate2| statistic| p.value| parameter| conf.low| conf.high|method                  |alternative |
|--------:|---------:|---------:|---------:|-------:|---------:|--------:|---------:|:-----------------------|:-----------|
|    0.089|      6.84|      6.75|     0.506|    0.62|      15.3|   -0.286|     0.464|Welch Two Sample t-test |two.sided   |



| estimate| estimate1| estimate2| statistic| p.value| parameter| conf.low| conf.high|method                  |alternative |
|--------:|---------:|---------:|---------:|-------:|---------:|--------:|---------:|:-----------------------|:-----------|
|   -0.171|      6.51|      6.68|    -0.875|   0.391|      21.7|   -0.576|     0.234|Welch Two Sample t-test |two.sided   |

```
## # A tibble: 43 x 17
## # Groups:   MaternalGenotype [2]
##    MaternalGenotype MaternalID Sex      BW   Fat  Lean FreeWater TotalWater
##    <fct>                 <dbl> <chr> <dbl> <dbl> <dbl>     <dbl>      <dbl>
##  1 WT                     8162 Male    7.6  0.74  6.23     0           5.95
##  2 WT                     8162 Male    7.8  0.76  6.58     1.46        4.27
##  3 WT                     8162 Fema…   7.5  0.94  5.91     0.19        5.66
##  4 WT                     8162 Fema…   7.8  0.67  6.5      0           5.27
##  5 KO                     8161 Male    8.1  0.95  6.42     0.580       6.73
##  6 KO                     8161 Male    8.2  0.98  6.74     0.88        6.13
##  7 KO                     8161 Fema…   7.8  1.01  6.22     1.22        7.23
##  8 KO                     8161 Fema…   7.5  0.68  6.25     0.33        5.93
##  9 KO                     7983 Male    7.8  0.76  6.25     0.04        5.86
## 10 KO                     7983 Fema…  10    1.57  7.4      0.18        6.72
## # … with 33 more rows, and 9 more variables: DateofBirth <chr>,
## #   DateofMRI <chr>, Notes <lgl>, AverageBW <dbl>, AverageFat <dbl>,
## #   AverageLean <dbl>, AverageBWpermaternalgenotype <dbl>,
## #   AverageLeanpermaternalgenotype <dbl>, AverageFatpermaternalgenotype <dbl>
```
…
